{
	"skipping-quiet-garage-rug": {
		"not-a-thwack": [
			1,
			2,
			3,
			4,
			5
		],
		"thwack": [
			5.276,
			5.760,
			6.228,
			6.654,
			7.062,
			7.475,
			7.882,
			8.266,
			8.662,
			9.085,
			
			20.453,
			20.924,
			21.366,
			21.704,
			21.973,
			
			28.007,
			28.483,
			28.930,
			29.312,
			29.709,
			
			35.854,
			36.306,
			36.758,
			37.193,
			37.620
		]
	},
	"skipping-quiet-garage-mat": {
		"not-a-thwack": [
			1,
			2,
			3,
			4,
			5,
			6,
			7,
			8,
			9
		],
		"thwack": [
			10.303,
			10.777,
			11.245,
			12.236,
			12.708,
			
			85.885,
			86.231,
			86.567,
			86.918,
			87.265,
			
			96.221,
			96.477
		]
	}
}